(kicad_pcb (version 20211014) (generator pcbnew)

  (general
    (thickness 1.6)
  )

  (paper "A4")
  (layers
    (0 "F.Cu" signal)
    (31 "B.Cu" signal)
    (32 "B.Adhes" user "B.Adhesive")
    (33 "F.Adhes" user "F.Adhesive")
    (34 "B.Paste" user)
    (35 "F.Paste" user)
    (36 "B.SilkS" user "B.Silkscreen")
    (37 "F.SilkS" user "F.Silkscreen")
    (38 "B.Mask" user)
    (39 "F.Mask" user)
    (40 "Dwgs.User" user "User.Drawings")
    (41 "Cmts.User" user "User.Comments")
    (42 "Eco1.User" user "User.Eco1")
    (43 "Eco2.User" user "User.Eco2")
    (44 "Edge.Cuts" user)
    (45 "Margin" user)
    (46 "B.CrtYd" user "B.Courtyard")
    (47 "F.CrtYd" user "F.Courtyard")
    (48 "B.Fab" user)
    (49 "F.Fab" user)
    (50 "User.1" user)
    (51 "User.2" user)
    (52 "User.3" user)
    (53 "User.4" user)
    (54 "User.5" user)
    (55 "User.6" user)
    (56 "User.7" user)
    (57 "User.8" user)
    (58 "User.9" user)
  )

  (setup
    (stackup
      (layer "F.SilkS" (type "Top Silk Screen"))
      (layer "F.Paste" (type "Top Solder Paste"))
      (layer "F.Mask" (type "Top Solder Mask") (thickness 0.01))
      (layer "F.Cu" (type "copper") (thickness 0.035))
      (layer "dielectric 1" (type "core") (thickness 1.51) (material "FR4") (epsilon_r 4.5) (loss_tangent 0.02))
      (layer "B.Cu" (type "copper") (thickness 0.035))
      (layer "B.Mask" (type "Bottom Solder Mask") (thickness 0.01))
      (layer "B.Paste" (type "Bottom Solder Paste"))
      (layer "B.SilkS" (type "Bottom Silk Screen"))
      (copper_finish "None")
      (dielectric_constraints no)
    )
    (pad_to_mask_clearance 0)
    (pcbplotparams
      (layerselection 0x00010fc_ffffffff)
      (disableapertmacros false)
      (usegerberextensions false)
      (usegerberattributes true)
      (usegerberadvancedattributes true)
      (creategerberjobfile true)
      (svguseinch false)
      (svgprecision 6)
      (excludeedgelayer true)
      (plotframeref false)
      (viasonmask false)
      (mode 1)
      (useauxorigin false)
      (hpglpennumber 1)
      (hpglpenspeed 20)
      (hpglpendiameter 15.000000)
      (dxfpolygonmode true)
      (dxfimperialunits true)
      (dxfusepcbnewfont true)
      (psnegative false)
      (psa4output false)
      (plotreference true)
      (plotvalue true)
      (plotinvisibletext false)
      (sketchpadsonfab false)
      (subtractmaskfromsilk false)
      (outputformat 1)
      (mirror false)
      (drillshape 1)
      (scaleselection 1)
      (outputdirectory "")
    )
  )

  (net 0 "")
  (net 1 "Net-(U1-Pad1)")
  (net 2 "Net-(U1-Pad2)")
  (net 3 "Net-(U1-Pad3)")
  (net 4 "Net-(U1-Pad4)")
  (net 5 "Net-(U1-Pad5)")
  (net 6 "Net-(U1-Pad6)")
  (net 7 "Net-(U1-Pad7)")
  (net 8 "Net-(U1-Pad8)")
  (net 9 "Net-(U1-Pad9)")
  (net 10 "Net-(U1-Pad10)")
  (net 11 "Net-(U1-Pad11)")
  (net 12 "Net-(U1-Pad12)")
  (net 13 "Net-(U1-Pad13)")
  (net 14 "Net-(U1-Pad14)")
  (net 15 "Net-(U1-Pad15)")
  (net 16 "Net-(U1-Pad16)")
  (net 17 "Net-(U1-Pad17)")
  (net 18 "Net-(U1-Pad18)")
  (net 19 "Net-(U1-Pad19)")
  (net 20 "Net-(U1-Pad20)")
  (net 21 "Net-(U1-Pad21)")
  (net 22 "Net-(U1-Pad22)")
  (net 23 "Net-(U1-Pad23)")
  (net 24 "Net-(U1-Pad24)")
  (net 25 "Net-(U1-Pad25)")

  (footprint "LGAD:LGAD 1.3 5x5 D3.1 M1" (layer "F.Cu")
    (tedit 0) (tstamp b1dd4707-2bb0-48ad-b4b5-4461449b36b9)
    (at 133.8 96.9)
    (property "Sheetfile" "5x5 LGAD-D3.1-M1.kicad_sch")
    (property "Sheetname" "")
    (path "/d2d9b6ae-4f2e-4a90-8f5a-fb5d0a082bfc")
    (attr smd)
    (fp_text reference "U1" (at 0 -4.9 unlocked) (layer "F.SilkS")
      (effects (font (size 1 1) (thickness 0.15)))
      (tstamp f73c4c9c-3384-4353-a042-fb4e2050cb0b)
    )
    (fp_text value "LGAD_5x5_D3.1" (at 0 4.3 unlocked) (layer "F.Fab") hide
      (effects (font (size 1 1) (thickness 0.15)))
      (tstamp 11d1759c-093c-4d22-841b-eba9e2bd57d7)
    )
    (fp_text user "${REFERENCE}" (at 0 5.6 unlocked) (layer "F.Fab") hide
      (effects (font (size 1 1) (thickness 0.15)))
      (tstamp 17c90309-cecc-427d-837a-88e125800b9b)
    )
    (fp_rect (start -3.55 -3.55) (end 3.55 3.55) (layer "F.SilkS") (width 0.12) (fill none) (tstamp 10396231-4bec-40c8-a351-6b60b8fffe4e))
    (fp_rect (start -3.25 2.816671) (end -2.925 3.250005) (layer "F.SilkS") (width 0.12) (fill solid) (tstamp 617b1927-4222-47d8-837c-d96f424e5a8f))
    (fp_line (start -3.25 0.216667) (end -1.949998 0.216667) (layer "Dwgs.User") (width 0.12) (tstamp 0aad5c1b-af7f-4b91-b05c-797051820ff6))
    (fp_line (start -3.249997 2.383332) (end -1.949998 2.383332) (layer "Dwgs.User") (width 0.12) (tstamp 1a234952-9e3b-46be-b175-a9229aeb44a0))
    (fp_line (start -3.249997 1.516666) (end -1.949998 1.516666) (layer "Dwgs.User") (width 0.12) (tstamp 21d04353-53e9-47b6-9337-a77f780bc514))
    (fp_line (start -3.25 2.816665) (end -1.949998 2.816665) (layer "Dwgs.User") (width 0.12) (tstamp 37c0d7db-db5d-4145-b20e-29bc6795d091))
    (fp_line (start -3.249997 1.083333) (end -1.949998 1.083333) (layer "Dwgs.User") (width 0.12) (tstamp 52560bb2-09d0-4b06-8b1d-d09f9bba7ccb))
    (fp_line (start -3.249997 -0.216666) (end -1.949998 -0.216666) (layer "Dwgs.User") (width 0.12) (tstamp 55875615-3789-49d7-b904-d8b029de0f3e))
    (fp_line (start -3.249997 -1.516665) (end -1.949998 -1.516665) (layer "Dwgs.User") (width 0.12) (tstamp 8c6b643e-3da2-4faf-9942-c50bfb9f34dd))
    (fp_line (start -3.25 1.95) (end 3.25 1.95) (layer "Dwgs.User") (width 0.12) (tstamp 8db2eabe-935d-482a-8e95-bfb70fe892d4))
    (fp_line (start -3.25 0.65) (end 3.25 0.65) (layer "Dwgs.User") (width 0.12) (tstamp 9809960b-4f84-4f92-a835-a5f9116a0aa2))
    (fp_line (start -3.25 -1.95) (end 3.25 -1.95) (layer "Dwgs.User") (width 0.12) (tstamp 9b92b800-5900-4ad4-bfca-878bbd3f0cb2))
    (fp_line (start -1.95 -3.25) (end -1.95 3.25) (layer "Dwgs.User") (width 0.12) (tstamp a05f8464-1825-40f7-babc-275bae1ca151))
    (fp_line (start -3.249997 -1.083332) (end -1.949998 -1.083332) (layer "Dwgs.User") (width 0.12) (tstamp a481f917-0d4c-4463-a64a-423e52c95753))
    (fp_line (start -3.249997 -2.816664) (end -1.949998 -2.816664) (layer "Dwgs.User") (width 0.12) (tstamp c76939e4-4d1c-463a-a30d-26d70e579e59))
    (fp_line (start -3.25 -0.65) (end 3.25 -0.65) (layer "Dwgs.User") (width 0.12) (tstamp cf53978b-2e27-4e6e-b533-54b4700143a0))
    (fp_line (start -3.249997 -2.383331) (end -1.949998 -2.383331) (layer "Dwgs.User") (width 0.12) (tstamp d1384dcc-32f7-4bee-a12e-ea521a378f98))
    (fp_line (start -0.65 3.25) (end -0.65 -3.25) (layer "Dwgs.User") (width 0.12) (tstamp d1d6b3cc-7f44-43f9-9e88-de89a442e3ef))
    (fp_rect (start -3.25 -3.25) (end 3.25 3.25) (layer "Dwgs.User") (width 0.12) (fill none) (tstamp f87f8cf6-c705-409b-85cd-c073d33d5c28))
    (fp_rect (start -3.55 -3.55) (end 3.55 3.55) (layer "F.CrtYd") (width 0.05) (fill none) (tstamp 0351aa33-5739-44b1-b5d1-73b0a4ae69a1))
    (pad "1" smd roundrect (at -2.6 3.033338) (size 0.3 0.3) (layers "F.Cu" "F.Paste" "F.Mask") (roundrect_rratio 0.25)
      (net 1 "Net-(U1-Pad1)") (pinfunction "1") (pintype "output") (tstamp 35802cc7-4300-4d42-831b-74de21b7d50e))
    (pad "2" smd roundrect (at -2.6 2.600004) (size 0.3 0.3) (layers "F.Cu" "F.Paste" "F.Mask") (roundrect_rratio 0.25)
      (net 2 "Net-(U1-Pad2)") (pinfunction "2") (pintype "output") (tstamp a989d2b1-b248-4b02-9dc3-05c7b1a574ac))
    (pad "3" smd roundrect (at -2.6 2.16667) (size 0.3 0.3) (layers "F.Cu" "F.Paste" "F.Mask") (roundrect_rratio 0.25)
      (net 3 "Net-(U1-Pad3)") (pinfunction "3") (pintype "output") (tstamp 053fada5-5389-4f81-8e2b-c123d1b80806))
    (pad "4" smd roundrect (at -2.6 1.733336) (size 0.3 0.3) (layers "F.Cu" "F.Paste" "F.Mask") (roundrect_rratio 0.25)
      (net 4 "Net-(U1-Pad4)") (pinfunction "4") (pintype "output") (tstamp 5dbdb3a8-3b18-4fe1-9562-2f719d2cb6ec))
    (pad "5" smd roundrect (at -2.6 1.300002) (size 0.3 0.3) (layers "F.Cu" "F.Paste" "F.Mask") (roundrect_rratio 0.25)
      (net 5 "Net-(U1-Pad5)") (pinfunction "5") (pintype "output") (tstamp 1938ffa1-bee3-4d1a-8e59-079b74ea9216))
    (pad "6" smd roundrect (at -2.6 0.866668) (size 0.3 0.3) (layers "F.Cu" "F.Paste" "F.Mask") (roundrect_rratio 0.25)
      (net 6 "Net-(U1-Pad6)") (pinfunction "6") (pintype "output") (tstamp f35bf3d4-57d4-41c1-a269-0256fcedbb22))
    (pad "7" smd roundrect (at -2.6 0.433334) (size 0.3 0.3) (layers "F.Cu" "F.Paste" "F.Mask") (roundrect_rratio 0.25)
      (net 7 "Net-(U1-Pad7)") (pinfunction "7") (pintype "output") (tstamp 4b4aac4e-5c09-41f5-b793-79313f87ad7c))
    (pad "8" smd roundrect (at -2.6 0) (size 0.3 0.3) (layers "F.Cu" "F.Paste" "F.Mask") (roundrect_rratio 0.25)
      (net 8 "Net-(U1-Pad8)") (pinfunction "8") (pintype "output") (tstamp 009fd7de-823d-4f90-aed8-1de0d5aa23ba))
    (pad "9" smd roundrect (at -2.6 -0.433334) (size 0.3 0.3) (layers "F.Cu" "F.Paste" "F.Mask") (roundrect_rratio 0.25)
      (net 9 "Net-(U1-Pad9)") (pinfunction "9") (pintype "output") (tstamp e1900370-95a2-4a4a-acaf-ed2637c143ac))
    (pad "10" smd roundrect (at -2.6 -0.866668) (size 0.3 0.3) (layers "F.Cu" "F.Paste" "F.Mask") (roundrect_rratio 0.25)
      (net 10 "Net-(U1-Pad10)") (pinfunction "10") (pintype "output") (tstamp 235570ec-82e1-4ca1-b5b5-267997ab4f89))
    (pad "11" smd roundrect (at -2.6 -1.300002) (size 0.3 0.3) (layers "F.Cu" "F.Paste" "F.Mask") (roundrect_rratio 0.25)
      (net 11 "Net-(U1-Pad11)") (pinfunction "11") (pintype "output") (tstamp d51dd995-18f8-41dd-bd6d-aade28a4f736))
    (pad "12" smd roundrect (at -2.6 -1.733336) (size 0.3 0.3) (layers "F.Cu" "F.Paste" "F.Mask") (roundrect_rratio 0.25)
      (net 12 "Net-(U1-Pad12)") (pinfunction "12") (pintype "output") (tstamp f698887d-1991-481e-8f5c-df4b6a8d7872))
    (pad "13" smd roundrect (at -2.6 -2.16667) (size 0.3 0.3) (layers "F.Cu" "F.Paste" "F.Mask") (roundrect_rratio 0.25)
      (net 13 "Net-(U1-Pad13)") (pinfunction "13") (pintype "output") (tstamp 0d81e614-f147-4089-816d-3aa1718e4d2b))
    (pad "14" smd roundrect (at -2.6 -2.600004) (size 0.3 0.3) (layers "F.Cu" "F.Paste" "F.Mask") (roundrect_rratio 0.25)
      (net 14 "Net-(U1-Pad14)") (pinfunction "14") (pintype "output") (tstamp 0ebbc3e6-6994-4fe8-9494-2262e2dd89e4))
    (pad "15" smd roundrect (at -2.6 -3.033338) (size 0.3 0.3) (layers "F.Cu" "F.Paste" "F.Mask") (roundrect_rratio 0.25)
      (net 15 "Net-(U1-Pad15)") (pinfunction "15") (pintype "output") (tstamp 1b59c9e1-c946-4ed9-873b-5e8007756a26))
    (pad "16" smd roundrect (at -1.3 2.6) (size 0.4 0.4) (layers "F.Cu" "F.Paste" "F.Mask") (roundrect_rratio 0.25)
      (net 16 "Net-(U1-Pad16)") (pinfunction "16") (pintype "output") (tstamp 37a3bcba-540e-4ebb-af9a-f168ec8d1d6b))
    (pad "17" smd roundrect (at -1.3 1.3) (size 0.4 0.4) (layers "F.Cu" "F.Paste" "F.Mask") (roundrect_rratio 0.25)
      (net 17 "Net-(U1-Pad17)") (pinfunction "17") (pintype "output") (tstamp 1dacfa9a-ce59-4ada-9ec2-015aa2d503bd))
    (pad "18" smd roundrect (at -1.3 0) (size 0.4 0.4) (layers "F.Cu" "F.Paste" "F.Mask") (roundrect_rratio 0.25)
      (net 18 "Net-(U1-Pad18)") (pinfunction "18") (pintype "output") (tstamp 2714c472-d80a-4a45-a939-edf3b5f0c471))
    (pad "19" smd roundrect (at -1.3 -1.3) (size 0.4 0.4) (layers "F.Cu" "F.Paste" "F.Mask") (roundrect_rratio 0.25)
      (net 19 "Net-(U1-Pad19)") (pinfunction "19") (pintype "output") (tstamp 405a1d62-fc19-47f1-a797-d9e3ff84260d))
    (pad "20" smd roundrect (at -1.3 -2.6) (size 0.4 0.4) (layers "F.Cu" "F.Paste" "F.Mask") (roundrect_rratio 0.25)
      (net 20 "Net-(U1-Pad20)") (pinfunction "20") (pintype "output") (tstamp b6086191-2cdc-46e0-a954-094aef5bd54b))
    (pad "21" smd roundrect (at 1.3 2.6) (size 0.4 0.4) (layers "F.Cu" "F.Paste" "F.Mask") (roundrect_rratio 0.25)
      (net 21 "Net-(U1-Pad21)") (pinfunction "21") (pintype "output") (tstamp 36602372-a336-41ee-aaf2-825f1ffc32ba))
    (pad "22" smd roundrect (at 1.3 1.3) (size 0.4 0.4) (layers "F.Cu" "F.Paste" "F.Mask") (roundrect_rratio 0.25)
      (net 22 "Net-(U1-Pad22)") (pinfunction "22") (pintype "output") (tstamp cb6fe9d6-506f-49e7-ab32-367abfa72d1a))
    (pad "23" smd roundrect (at 1.3 0) (size 0.4 0.4) (layers "F.Cu" "F.Paste" "F.Mask") (roundrect_rratio 0.25)
      (net 23 "Net-(U1-Pad23)") (pinfunction "23") (pintype "output") (tstamp 6b4537b9-18d8-4537-9280-66431f8ba3ff))
    (pad "24" smd roundrect (at 1.3 -1.3) (size 0.4 0.4) (layers "F.Cu" "F.Paste" "F.Mask") (roundrect_rratio 0.25)
      (net 24 "Net-(U1-Pad24)") (pinfunction "24") (pintype "output") (tstamp ca234a2c-a3f2-4a4b-a26a-1a01ba9ddab9))
    (pad "25" smd roundrect (at 1.3 -2.6) (size 0.4 0.4) (layers "F.Cu" "F.Paste" "F.Mask") (roundrect_rratio 0.25)
      (net 25 "Net-(U1-Pad25)") (pinfunction "25") (pintype "output") (tstamp 4f14b347-675b-4583-ac43-00e736d271f3))
  )

  (footprint "LGAD:ETROC 5x5 0.3 Pads" (layer "B.Cu")
    (tedit 0) (tstamp 69825737-c502-4f45-a9eb-45801eebc71e)
    (at 133.8 96.9)
    (property "Sheetfile" "5x5 LGAD-D3.1-M1.kicad_sch")
    (property "Sheetname" "")
    (path "/aef3ab6e-ddb3-4eae-a994-dfdd4e14d4e9")
    (attr smd)
    (fp_text reference "U2" (at -0.05 5.4 180 unlocked) (layer "B.SilkS")
      (effects (font (size 1 1) (thickness 0.15)) (justify mirror))
      (tstamp 8759c507-9681-4feb-9fb8-f929660b5523)
    )
    (fp_text value "ETROC_5x5" (at 0 -4.4 180 unlocked) (layer "B.Fab") hide
      (effects (font (size 1 1) (thickness 0.15)) (justify mirror))
      (tstamp 614cc642-6349-498c-8abf-f11c7e23cd0a)
    )
    (fp_text user "${REFERENCE}" (at 0 -5.7 180 unlocked) (layer "B.Fab") hide
      (effects (font (size 1 1) (thickness 0.15)) (justify mirror))
      (tstamp 472a62ac-5029-48cc-9484-bd6c444c955c)
    )
    (fp_rect (start -2.925 2.925) (end -2.275 2.275) (layer "B.SilkS") (width 0.12) (fill none) (tstamp 4bdcf7da-66d5-48a9-8632-7c9cef3e3e40))
    (fp_rect (start -3.55 3.55) (end 3.55 -3.55) (layer "B.SilkS") (width 0.12) (fill none) (tstamp 813f113f-3cbc-4101-a635-66d4c3f33ef2))
    (fp_line (start 0.65 -3.25) (end 1.95 -3.25) (layer "Dwgs.User") (width 0.12) (tstamp 04013fc7-e93e-4147-b494-aa58ae50a059))
    (fp_line (start 3.25 1.95) (end -3.25 1.95) (layer "Dwgs.User") (width 0.12) (tstamp 1e2bd0b5-ad15-441e-8699-f6bb63cfb6b2))
    (fp_line (start -1.95 -3.25) (end -0.65 -3.25) (layer "Dwgs.User") (width 0.12) (tstamp 2b3cd3fd-d117-47a6-be0b-417fbe7aa675))
    (fp_line (start -3.25 1.95) (end -3.25 0.65) (layer "Dwgs.User") (width 0.12) (tstamp 571eeff3-db73-41b5-947e-f028ae2a8d37))
    (fp_line (start 3.25 0.65) (end 3.25 -0.65) (layer "Dwgs.User") (width 0.12) (tstamp 5ba7aecb-ddd8-4e83-8256-15ac6ba6d899))
    (fp_line (start -0.65 3.25) (end 0.65 3.25) (layer "Dwgs.User") (width 0.12) (tstamp 7435b138-c4dd-47e7-9cd2-37678097e720))
    (fp_line (start -3.25 -0.65) (end -3.25 -1.95) (layer "Dwgs.User") (width 0.12) (tstamp 781a88e5-081a-42fc-843f-f4a1965da538))
    (fp_line (start 1.95 -3.25) (end 1.95 3.25) (layer "Dwgs.User") (width 0.12) (tstamp a4a57f6d-b9b5-4d47-b1ec-f73739eb7a15))
    (fp_line (start 0.65 3.25) (end 0.65 -3.25) (layer "Dwgs.User") (width 0.12) (tstamp aefdcf74-2cf0-494d-8920-30bb25a5f7b7))
    (fp_line (start 3.25 -0.65) (end -3.25 -0.65) (layer "Dwgs.User") (width 0.12) (tstamp b680a37f-f395-4e76-9a3f-ab24ee4560ed))
    (fp_line (start -3.25 0.65) (end 3.25 0.65) (layer "Dwgs.User") (width 0.12) (tstamp cae4f42f-09a9-422f-99ca-fa5206a51b08))
    (fp_line (start -3.25 -1.95) (end 3.25 -1.95) (layer "Dwgs.User") (width 0.12) (tstamp cd838119-c312-4180-b59c-f2fd9bace716))
    (fp_line (start -0.65 -3.25) (end -0.65 3.25) (layer "Dwgs.User") (width 0.12) (tstamp d8dea831-1b13-4447-ac6b-3fc7a6ca1d90))
    (fp_line (start -1.95 3.25) (end -1.95 -3.25) (layer "Dwgs.User") (width 0.12) (tstamp ecd50075-fe82-4d88-a572-738befd8c133))
    (fp_rect (start -3.25 3.25) (end 3.25 -3.25) (layer "Dwgs.User") (width 0.12) (fill none) (tstamp c6db4609-b698-4294-b1fb-eab306eb74fe))
    (fp_rect (start -3.55 3.55) (end 3.55 -3.55) (layer "B.CrtYd") (width 0.05) (fill none) (tstamp 1a96cf92-c2c9-4137-85c0-82879136450d))
    (pad "1" smd roundrect (at -2.6 2.6) (size 0.3 0.3) (layers "B.Cu" "B.Paste" "B.Mask") (roundrect_rratio 0.25)
      (net 2 "Net-(U1-Pad2)") (pinfunction "1") (pintype "input") (tstamp 778b4f0e-c0c7-445b-8a8a-b7e10a8def32))
    (pad "2" smd roundrect (at -2.6 1.3) (size 0.3 0.3) (layers "B.Cu" "B.Paste" "B.Mask") (roundrect_rratio 0.25)
      (net 5 "Net-(U1-Pad5)") (pinfunction "2") (pintype "input") (tstamp 90099836-58ac-44b1-82c9-52044193a9a2))
    (pad "3" smd roundrect (at -2.6 0) (size 0.3 0.3) (layers "B.Cu" "B.Paste" "B.Mask") (roundrect_rratio 0.25)
      (net 8 "Net-(U1-Pad8)") (pinfunction "3") (pintype "input") (tstamp a6053497-7d1d-4de8-94d7-ba17479ba028))
    (pad "4" smd roundrect (at -2.6 -1.3) (size 0.3 0.3) (layers "B.Cu" "B.Paste" "B.Mask") (roundrect_rratio 0.25)
      (net 11 "Net-(U1-Pad11)") (pinfunction "4") (pintype "input") (tstamp 4cbb7caf-3be9-41de-8a92-ab673aaf0c1b))
    (pad "5" smd roundrect (at -2.6 -2.6) (size 0.3 0.3) (layers "B.Cu" "B.Paste" "B.Mask") (roundrect_rratio 0.25)
      (net 14 "Net-(U1-Pad14)") (pinfunction "5") (pintype "input") (tstamp 6177db2c-a035-4715-90a4-b11e82cc515b))
    (pad "6" smd roundrect (at -1.3 2.6) (size 0.3 0.3) (layers "B.Cu" "B.Paste" "B.Mask") (roundrect_rratio 0.25)
      (net 1 "Net-(U1-Pad1)") (pinfunction "6") (pintype "input") (tstamp 75dac3af-8af5-4217-963f-1b0c3e5d92f8))
    (pad "7" smd roundrect (at -1.3 1.3) (size 0.3 0.3) (layers "B.Cu" "B.Paste" "B.Mask") (roundrect_rratio 0.25)
      (net 4 "Net-(U1-Pad4)") (pinfunction "7") (pintype "input") (tstamp afd7a487-931c-4eee-bf46-4b0c27edf23f))
    (pad "8" smd roundrect (at -1.3 0) (size 0.3 0.3) (layers "B.Cu" "B.Paste" "B.Mask") (roundrect_rratio 0.25)
      (net 7 "Net-(U1-Pad7)") (pinfunction "8") (pintype "input") (tstamp cc065075-2e10-47f8-aaeb-15ad77da1cc3))
    (pad "9" smd roundrect (at -1.3 -1.3) (size 0.3 0.3) (layers "B.Cu" "B.Paste" "B.Mask") (roundrect_rratio 0.25)
      (net 10 "Net-(U1-Pad10)") (pinfunction "9") (pintype "input") (tstamp 18a90734-30fe-48b4-b50b-45dc6bd55c67))
    (pad "10" smd roundrect (at -1.3 -2.6) (size 0.3 0.3) (layers "B.Cu" "B.Paste" "B.Mask") (roundrect_rratio 0.25)
      (net 13 "Net-(U1-Pad13)") (pinfunction "10") (pintype "input") (tstamp 10d6450a-475a-4d26-bfc6-405132bf6477))
    (pad "11" smd roundrect (at 0 2.6) (size 0.3 0.3) (layers "B.Cu" "B.Paste" "B.Mask") (roundrect_rratio 0.25)
      (net 3 "Net-(U1-Pad3)") (pinfunction "11") (pintype "input") (tstamp b83e01b3-c818-41c1-9687-7f0fb6b49ef3))
    (pad "12" smd roundrect (at 0 1.3) (size 0.3 0.3) (layers "B.Cu" "B.Paste" "B.Mask") (roundrect_rratio 0.25)
      (net 6 "Net-(U1-Pad6)") (pinfunction "12") (pintype "input") (tstamp 6c9daaed-b8e2-4d3b-95ef-cf6a66443465))
    (pad "13" smd roundrect (at 0 0) (size 0.3 0.3) (layers "B.Cu" "B.Paste" "B.Mask") (roundrect_rratio 0.25)
      (net 9 "Net-(U1-Pad9)") (pinfunction "13") (pintype "input") (tstamp 699a7da9-3741-42c1-8135-e7011ccab490))
    (pad "14" smd roundrect (at 0 -1.3) (size 0.3 0.3) (layers "B.Cu" "B.Paste" "B.Mask") (roundrect_rratio 0.25)
      (net 12 "Net-(U1-Pad12)") (pinfunction "14") (pintype "input") (tstamp d3ccc375-375b-45f8-819a-78dc188e735c))
    (pad "15" smd roundrect (at 0 -2.6) (size 0.3 0.3) (layers "B.Cu" "B.Paste" "B.Mask") (roundrect_rratio 0.25)
      (net 15 "Net-(U1-Pad15)") (pinfunction "15") (pintype "input") (tstamp 535532cf-ab82-4cc7-888e-c013b777123f))
    (pad "16" smd roundrect (at 1.3 2.6) (size 0.3 0.3) (layers "B.Cu" "B.Paste" "B.Mask") (roundrect_rratio 0.25)
      (net 16 "Net-(U1-Pad16)") (pinfunction "16") (pintype "input") (tstamp ca09b70f-4be2-43c3-b15f-24be2aa40f82))
    (pad "17" smd roundrect (at 1.3 1.3) (size 0.3 0.3) (layers "B.Cu" "B.Paste" "B.Mask") (roundrect_rratio 0.25)
      (net 17 "Net-(U1-Pad17)") (pinfunction "17") (pintype "input") (tstamp c9b8c5fa-df26-4dae-8c29-3b3c720768af))
    (pad "18" smd roundrect (at 1.3 0) (size 0.3 0.3) (layers "B.Cu" "B.Paste" "B.Mask") (roundrect_rratio 0.25)
      (net 18 "Net-(U1-Pad18)") (pinfunction "18") (pintype "input") (tstamp dca911d2-1441-4cb8-b202-2e1e4ba53a90))
    (pad "19" smd roundrect (at 1.3 -1.3) (size 0.3 0.3) (layers "B.Cu" "B.Paste" "B.Mask") (roundrect_rratio 0.25)
      (net 19 "Net-(U1-Pad19)") (pinfunction "19") (pintype "input") (tstamp 45b633e6-0e8a-4bff-8af3-544659f4249e))
    (pad "20" smd roundrect (at 1.3 -2.6) (size 0.3 0.3) (layers "B.Cu" "B.Paste" "B.Mask") (roundrect_rratio 0.25)
      (net 20 "Net-(U1-Pad20)") (pinfunction "20") (pintype "input") (tstamp 41045b3c-4ca6-4007-9ab5-09eb737b38eb))
    (pad "21" smd roundrect (at 2.6 2.6) (size 0.3 0.3) (layers "B.Cu" "B.Paste" "B.Mask") (roundrect_rratio 0.25)
      (net 21 "Net-(U1-Pad21)") (pinfunction "21") (pintype "input") (tstamp fc1b1bfb-ae42-43da-ae92-f3224d0f0edc))
    (pad "22" smd roundrect (at 2.6 1.3) (size 0.3 0.3) (layers "B.Cu" "B.Paste" "B.Mask") (roundrect_rratio 0.25)
      (net 22 "Net-(U1-Pad22)") (pinfunction "22") (pintype "input") (tstamp e5d94c5f-4399-4dc7-87d0-b40da74b7cc0))
    (pad "23" smd roundrect (at 2.6 0) (size 0.3 0.3) (layers "B.Cu" "B.Paste" "B.Mask") (roundrect_rratio 0.25)
      (net 23 "Net-(U1-Pad23)") (pinfunction "23") (pintype "input") (tstamp f2be7291-2a2a-4f4c-a02c-17726ff7c57e))
    (pad "24" smd roundrect (at 2.6 -1.3) (size 0.3 0.3) (layers "B.Cu" "B.Paste" "B.Mask") (roundrect_rratio 0.25)
      (net 24 "Net-(U1-Pad24)") (pinfunction "24") (pintype "input") (tstamp 17335a64-82c8-49dd-a204-48349b75c651))
    (pad "25" smd roundrect (at 2.6 -2.6) (size 0.3 0.3) (layers "B.Cu" "B.Paste" "B.Mask") (roundrect_rratio 0.25)
      (net 25 "Net-(U1-Pad25)") (pinfunction "25") (pintype "input") (tstamp 1bc38465-578d-4fd3-9aef-c2bac08eb32a))
  )

  (gr_line (start 137.5 92.9) (end 130.1 92.9) (layer "Edge.Cuts") (width 0.1) (tstamp 2651f33e-1d91-42ae-89e2-1c094c608a77))
  (gr_line (start 130.1 92.9) (end 130.1 100.95) (layer "Edge.Cuts") (width 0.1) (tstamp 2be8e9a3-fc2f-4f1f-a13b-fc63d357a19e))
  (gr_line (start 130.1 100.95) (end 137.5 100.95) (layer "Edge.Cuts") (width 0.1) (tstamp 2ce73f66-a466-423e-b81b-99fe317e0751))
  (gr_line (start 137.5 100.95) (end 137.5 92.9) (layer "Edge.Cuts") (width 0.1) (tstamp f49a87eb-b16e-4b4c-859f-cdef7e6b2590))

  (segment (start 131.766662 99.933338) (end 131.85 99.85) (width 0.2) (layer "F.Cu") (net 1) (tstamp 376614a2-0299-4cb7-a240-52540ebbef74))
  (segment (start 131.2 99.933338) (end 131.766662 99.933338) (width 0.2) (layer "F.Cu") (net 1) (tstamp e3f60ca1-4a28-4e0a-8a86-4f1a543506b3))
  (via (at 131.85 99.85) (size 0.6) (drill 0.2) (layers "F.Cu" "B.Cu") (net 1) (tstamp 56d164c1-9202-4db8-87e3-cbf017984de6))
  (segment (start 132.15 99.85) (end 132.5 99.5) (width 0.2) (layer "B.Cu") (net 1) (tstamp 76ce45b2-6f63-4040-a2f4-d8f351944296))
  (segment (start 131.85 99.85) (end 132.15 99.85) (width 0.2) (layer "B.Cu") (net 1) (tstamp 9d84b496-8069-41fe-b908-6536daee56f5))
  (segment (start 131.2 99.500004) (end 130.77701 99.500004) (width 0.2) (layer "F.Cu") (net 2) (tstamp 6a2217b3-7c55-4105-b01a-74b7de129200))
  (via (at 130.77701 99.500004) (size 0.6) (drill 0.2) (layers "F.Cu" "B.Cu") (net 2) (tstamp 3c768318-665a-4148-9404-09728a460170))
  (segment (start 131.199996 99.500004) (end 131.2 99.5) (width 0.2) (layer "B.Cu") (net 2) (tstamp 1673157c-80af-49a4-855f-51c400db3d01))
  (segment (start 130.77701 99.500004) (end 131.199996 99.500004) (width 0.2) (layer "B.Cu") (net 2) (tstamp 24ae9bfd-0ed9-4b18-adbb-5465822fe205))
  (segment (start 131.2 99.06667) (end 133.05883 99.06667) (width 0.2) (layer "F.Cu") (net 3) (tstamp 12c70efc-7af3-4d4f-a155-58dde51c763a))
  (segment (start 133.05883 99.06667) (end 133.15 98.9755) (width 0.2) (layer "F.Cu") (net 3) (tstamp 38df0afd-6a72-4485-8b00-53ef589a4c02))
  (via (at 133.15 98.9755) (size 0.6) (drill 0.2) (layers "F.Cu" "B.Cu") (net 3) (tstamp 80326569-7eea-466f-bdac-18c8b1e8d002))
  (segment (start 133.2755 98.9755) (end 133.8 99.5) (width 0.2) (layer "B.Cu") (net 3) (tstamp cbaad985-bbdc-4a14-ad2f-b8a781ea7a08))
  (segment (start 133.15 98.9755) (end 133.2755 98.9755) (width 0.2) (layer "B.Cu") (net 3) (tstamp e76d50f7-acd5-4749-b10d-b59d2b779404))
  (segment (start 131.758834 98.633336) (end 131.85 98.54217) (width 0.2) (layer "F.Cu") (net 4) (tstamp 3bb02cd6-dbd6-48ea-94c3-b6f66ed79d47))
  (segment (start 131.2 98.633336) (end 131.758834 98.633336) (width 0.2) (layer "F.Cu") (net 4) (tstamp 5372dda3-2642-458a-a85a-3dd409660233))
  (via (at 131.85 98.54217) (size 0.6) (drill 0.2) (layers "F.Cu" "B.Cu") (net 4) (tstamp 27e58554-8ba3-46b6-80dc-e0328f75db3a))
  (segment (start 132.15783 98.54217) (end 132.5 98.2) (width 0.2) (layer "B.Cu") (net 4) (tstamp 0cfb55db-9f6e-46bd-a260-2ac507e5f121))
  (segment (start 131.85 98.54217) (end 132.15783 98.54217) (width 0.2) (layer "B.Cu") (net 4) (tstamp 9398c6f1-7666-44d5-b18d-3f2c37a63f76))
  (segment (start 131.2 98.200002) (end 130.777009 98.200002) (width 0.2) (layer "F.Cu") (net 5) (tstamp 3e6e8df0-32e1-47c3-9fea-3c3f41ffce5a))
  (via (at 130.777009 98.200002) (size 0.6) (drill 0.2) (layers "F.Cu" "B.Cu") (net 5) (tstamp 8062f2f5-534d-4b35-871c-7f5b91128ba1))
  (segment (start 131.199998 98.200002) (end 131.2 98.2) (width 0.2) (layer "B.Cu") (net 5) (tstamp 1119b81e-c371-41eb-8b39-2d338a94e05d))
  (segment (start 130.777009 98.200002) (end 131.199998 98.200002) (width 0.2) (layer "B.Cu") (net 5) (tstamp a710bdcf-3f3c-4c0f-ad6d-f495516011ea))
  (segment (start 133.058832 97.766668) (end 133.15 97.6755) (width 0.2) (layer "F.Cu") (net 6) (tstamp 31d22368-0392-4fca-b694-a4d7e4443be2))
  (segment (start 131.2 97.766668) (end 133.058832 97.766668) (width 0.2) (layer "F.Cu") (net 6) (tstamp ebf238a2-6d77-4e2b-a420-74249caafbd2))
  (via (at 133.15 97.6755) (size 0.6) (drill 0.2) (layers "F.Cu" "B.Cu") (net 6) (tstamp 7b129628-8788-43b1-9e8e-4b6004c28660))
  (segment (start 133.15 97.6755) (end 133.2755 97.6755) (width 0.2) (layer "B.Cu") (net 6) (tstamp c4ea63b1-021d-4b6f-8cb8-c580650b5930))
  (segment (start 133.2755 97.6755) (end 133.8 98.2) (width 0.2) (layer "B.Cu") (net 6) (tstamp f905b8c9-38c7-4e8f-b703-c3a0ead79da8))
  (segment (start 131.2 97.333334) (end 131.758834 97.333334) (width 0.2) (layer "F.Cu") (net 7) (tstamp 9ef23ea5-ffdc-4c3b-9f55-24759bb39e29))
  (segment (start 131.758834 97.333334) (end 131.85 97.242168) (width 0.2) (layer "F.Cu") (net 7) (tstamp f616d68f-7906-4bc0-8774-ebd5beee452c))
  (via (at 131.85 97.242168) (size 0.6) (drill 0.2) (layers "F.Cu" "B.Cu") (net 7) (tstamp 34fd1f17-617e-4d4a-b513-061cc11cad63))
  (segment (start 132.157832 97.242168) (end 132.5 96.9) (width 0.2) (layer "B.Cu") (net 7) (tstamp 8431a017-5fa8-48a4-a451-e25423f45d6f))
  (segment (start 131.85 97.242168) (end 132.157832 97.242168) (width 0.2) (layer "B.Cu") (net 7) (tstamp fb5bd3f2-662f-4748-b508-8d5ed802563f))
  (segment (start 131.2 96.9) (end 130.77701 96.9) (width 0.2) (layer "F.Cu") (net 8) (tstamp dd6d4e73-c615-4905-95fb-7d3bd38bd77a))
  (via (at 130.77701 96.9) (size 0.6) (drill 0.2) (layers "F.Cu" "B.Cu") (net 8) (tstamp aae071d6-30be-4874-af4a-4563e5e55325))
  (segment (start 130.77701 96.9) (end 131.2 96.9) (width 0.2) (layer "B.Cu") (net 8) (tstamp 38a79c62-8151-451c-8aff-91d72917e229))
  (segment (start 133.058834 96.466666) (end 133.15 96.3755) (width 0.2) (layer "F.Cu") (net 9) (tstamp 40ccaf6d-a867-41b1-9294-ac8815d1e4b4))
  (segment (start 131.2 96.466666) (end 133.058834 96.466666) (width 0.2) (layer "F.Cu") (net 9) (tstamp ef40aa55-590e-4ba2-8d8d-a4de04edb7c9))
  (via (at 133.15 96.3755) (size 0.6) (drill 0.2) (layers "F.Cu" "B.Cu") (net 9) (tstamp cb701ddc-1734-4c80-9589-668ade2bd419))
  (segment (start 133.2755 96.3755) (end 133.8 96.9) (width 0.2) (layer "B.Cu") (net 9) (tstamp 6e8aac06-b1ea-421e-b215-9dad3f748f4b))
  (segment (start 133.15 96.3755) (end 133.2755 96.3755) (width 0.2) (layer "B.Cu") (net 9) (tstamp 996c85f6-ea09-4263-8a4a-bd214ee9b71f))
  (segment (start 131.2 96.033332) (end 131.758834 96.033332) (width 0.2) (layer "F.Cu") (net 10) (tstamp 7f78c458-f752-4b26-a2fc-88c8f3b7eea7))
  (segment (start 131.758834 96.033332) (end 131.85 95.942166) (width 0.2) (layer "F.Cu") (net 10) (tstamp bf51cec8-d971-44ac-a7d6-e6148401e3d5))
  (via (at 131.85 95.942166) (size 0.6) (drill 0.2) (layers "F.Cu" "B.Cu") (net 10) (tstamp 97145599-03dc-486d-924a-483908526902))
  (segment (start 131.85 95.942166) (end 132.157834 95.942166) (width 0.2) (layer "B.Cu") (net 10) (tstamp 3c2f10bd-04b7-4812-90ac-3eae88171fcc))
  (segment (start 132.157834 95.942166) (end 132.5 95.6) (width 0.2) (layer "B.Cu") (net 10) (tstamp 78f46269-bf46-49a9-a505-14c40597c8cb))
  (segment (start 131.2 95.599998) (end 130.77701 95.599998) (width 0.2) (layer "F.Cu") (net 11) (tstamp 7b70d1b3-8f7f-40e6-8f24-b43cfb1c4beb))
  (via (at 130.77701 95.599998) (size 0.6) (drill 0.2) (layers "F.Cu" "B.Cu") (net 11) (tstamp dda42ecb-31b4-42c4-b6eb-1a58b9ef3880))
  (segment (start 130.77701 95.599998) (end 131.199998 95.599998) (width 0.2) (layer "B.Cu") (net 11) (tstamp 157c3f9f-a950-4877-a1fe-7d1fa3333dde))
  (segment (start 131.199998 95.599998) (end 131.2 95.6) (width 0.2) (layer "B.Cu") (net 11) (tstamp 9ad5e21f-38af-4638-901c-da756eef4b2a))
  (segment (start 131.2 95.166664) (end 133.058836 95.166664) (width 0.2) (layer "F.Cu") (net 12) (tstamp 1585de45-cd5a-4f7d-bef9-8a00bd97adcf))
  (segment (start 133.058836 95.166664) (end 133.15 95.0755) (width 0.2) (layer "F.Cu") (net 12) (tstamp 6661649c-acdf-4cb0-a086-30ec16597e81))
  (via (at 133.15 95.0755) (size 0.6) (drill 0.2) (layers "F.Cu" "B.Cu") (net 12) (tstamp 9e91a5df-5d68-425e-a761-37bdb2b479c1))
  (segment (start 133.15 95.0755) (end 133.2755 95.0755) (width 0.2) (layer "B.Cu") (net 12) (tstamp 66ac4ba9-d491-4073-9038-29f2acd1f045))
  (segment (start 133.2755 95.0755) (end 133.8 95.6) (width 0.2) (layer "B.Cu") (net 12) (tstamp ea4c4012-f34f-47ac-901a-5fc826bea6ec))
  (segment (start 131.758834 94.73333) (end 131.85 94.642164) (width 0.2) (layer "F.Cu") (net 13) (tstamp 104edfae-4675-4aaa-b301-f5ac396273a4))
  (segment (start 131.2 94.73333) (end 131.758834 94.73333) (width 0.2) (layer "F.Cu") (net 13) (tstamp 18e4e60a-e7e2-4c4c-b49c-dd6638ea951a))
  (via (at 131.85 94.642164) (size 0.6) (drill 0.2) (layers "F.Cu" "B.Cu") (net 13) (tstamp 9bde135b-b0fa-4b02-8c37-3e653f065a6c))
  (segment (start 132.157836 94.642164) (end 132.5 94.3) (width 0.2) (layer "B.Cu") (net 13) (tstamp 58018cb2-6857-41c9-b974-ec909eac7c25))
  (segment (start 131.85 94.642164) (end 132.157836 94.642164) (width 0.2) (layer "B.Cu") (net 13) (tstamp 901682ee-f78e-4f54-84cb-2be11de4d9d6))
  (segment (start 131.2 94.299996) (end 130.77701 94.299996) (width 0.2) (layer "F.Cu") (net 14) (tstamp 732c966f-f62c-4861-848a-1943549d14b4))
  (via (at 130.77701 94.299996) (size 0.6) (drill 0.2) (layers "F.Cu" "B.Cu") (net 14) (tstamp 501a1411-35a6-4289-9a34-1c4a7642c08d))
  (segment (start 131.199996 94.299996) (end 131.2 94.3) (width 0.2) (layer "B.Cu") (net 14) (tstamp 76aeabaf-f7cf-43e7-bdcf-3b08402a3925))
  (segment (start 130.77701 94.299996) (end 131.199996 94.299996) (width 0.2) (layer "B.Cu") (net 14) (tstamp 9d704acb-156c-4d40-ab5f-a438a3057be2))
  (segment (start 131.2 93.866662) (end 133.058838 93.866662) (width 0.2) (layer "F.Cu") (net 15) (tstamp 00c3e4ce-86f8-424f-a120-773eed359d15))
  (segment (start 133.058838 93.866662) (end 133.15 93.7755) (width 0.2) (layer "F.Cu") (net 15) (tstamp 1a81bf9a-a8a8-45e0-98f3-04db5a521098))
  (via (at 133.15 93.7755) (size 0.6) (drill 0.2) (layers "F.Cu" "B.Cu") (net 15) (tstamp 5699c47f-b7b4-4ea2-ba77-312fd5ab3010))
  (segment (start 133.15 93.7755) (end 133.2755 93.7755) (width 0.2) (layer "B.Cu") (net 15) (tstamp 74ae7cd0-0f5c-420f-a94f-6d6b012a6444))
  (segment (start 133.2755 93.7755) (end 133.8 94.3) (width 0.2) (layer "B.Cu") (net 15) (tstamp dc1fa3b1-0256-44dd-b402-c9c6e6e805dc))
  (segment (start 132.5 99.5) (end 134.45 99.5) (width 0.2) (layer "F.Cu") (net 16) (tstamp 3f23080d-e65c-4035-afe4-5cc90aff70ed))
  (via (at 134.45 99.5) (size 0.6) (drill 0.2) (layers "F.Cu" "B.Cu") (net 16) (tstamp 5ca2efbf-f110-4cf9-af3f-524f53fd3b50))
  (segment (start 134.45 99.5) (end 135.1 99.5) (width 0.2) (layer "B.Cu") (net 16) (tstamp 0e5f005c-9a72-459c-8b5e-1b7a2f3b79a1))
  (segment (start 132.5 98.2) (end 134.45 98.2) (width 0.2) (layer "F.Cu") (net 17) (tstamp f2062a0a-998e-458d-8f97-fcec1a030bd7))
  (via (at 134.45 98.2) (size 0.6) (drill 0.2) (layers "F.Cu" "B.Cu") (net 17) (tstamp 07cbac43-b8fe-4b2e-91ea-6b32e1871068))
  (segment (start 134.45 98.2) (end 135.1 98.2) (width 0.2) (layer "B.Cu") (net 17) (tstamp 04515795-07e6-40f0-928a-3ad5c1b65af3))
  (segment (start 132.5 96.9) (end 134.45 96.9) (width 0.2) (layer "F.Cu") (net 18) (tstamp e8277614-9dc6-481b-abfd-903a03dcdfe1))
  (via (at 134.45 96.9) (size 0.6) (drill 0.2) (layers "F.Cu" "B.Cu") (net 18) (tstamp 1ee89f6b-ec42-4f9b-ac54-ab7f927814d0))
  (segment (start 134.45 96.9) (end 135.1 96.9) (width 0.2) (layer "B.Cu") (net 18) (tstamp 70b26262-b386-4567-992c-bd2331bdec00))
  (segment (start 132.5 95.6) (end 134.45 95.6) (width 0.2) (layer "F.Cu") (net 19) (tstamp ced17c48-ece6-4806-bd88-d6b4901b7019))
  (via (at 134.45 95.6) (size 0.6) (drill 0.2) (layers "F.Cu" "B.Cu") (net 19) (tstamp 59957ebc-0e7e-4e95-8a90-8c16354f2d7f))
  (segment (start 134.45 95.6) (end 135.1 95.6) (width 0.2) (layer "B.Cu") (net 19) (tstamp 9c01d633-da7d-4ade-9fb3-94ce1ca689ea))
  (segment (start 132.5 94.3) (end 134.45 94.3) (width 0.2) (layer "F.Cu") (net 20) (tstamp 36253237-3ade-4094-b5b1-778477e6dc20))
  (via (at 134.45 94.3) (size 0.6) (drill 0.2) (layers "F.Cu" "B.Cu") (net 20) (tstamp 7fb3ea02-539e-4a04-8b88-298b4a25185d))
  (segment (start 134.45 94.3) (end 135.1 94.3) (width 0.2) (layer "B.Cu") (net 20) (tstamp fc8c7141-668a-4bbb-afed-ddb6714c0a7e))
  (segment (start 135.1 99.5) (end 135.75 99.5) (width 0.2) (layer "F.Cu") (net 21) (tstamp cbc23c44-09de-4262-8e8f-247c6f371f59))
  (via (at 135.75 99.5) (size 0.6) (drill 0.2) (layers "F.Cu" "B.Cu") (net 21) (tstamp 52cf8cdf-e4dd-40a5-9ba9-74f705b4b455))
  (segment (start 135.75 99.5) (end 136.4 99.5) (width 0.2) (layer "B.Cu") (net 21) (tstamp c631abe8-27df-4987-8c1b-14a4daea665f))
  (segment (start 135.1 98.2) (end 135.75 98.2) (width 0.2) (layer "F.Cu") (net 22) (tstamp 122aabd6-b01d-4920-ae7f-68b80e784176))
  (via (at 135.75 98.2) (size 0.6) (drill 0.2) (layers "F.Cu" "B.Cu") (net 22) (tstamp cfbca9d2-9fb7-4f0c-ac43-3a8f1ded2912))
  (segment (start 135.75 98.2) (end 136.4 98.2) (width 0.2) (layer "B.Cu") (net 22) (tstamp a76561a7-3adc-4c67-8151-5e0a07f84603))
  (segment (start 135.1 96.9) (end 135.75 96.9) (width 0.2) (layer "F.Cu") (net 23) (tstamp 3bb12709-a702-47a0-a41e-40581da3eddc))
  (via (at 135.75 96.9) (size 0.6) (drill 0.2) (layers "F.Cu" "B.Cu") (net 23) (tstamp 9fb8e159-5192-4f24-892c-14a7c87c5172))
  (segment (start 135.75 96.9) (end 136.4 96.9) (width 0.2) (layer "B.Cu") (net 23) (tstamp dd7222c6-b574-4285-aba7-9bcb3dedd7ee))
  (segment (start 135.1 95.6) (end 135.75 95.6) (width 0.2) (layer "F.Cu") (net 24) (tstamp b87ba762-093f-4382-b9a8-247543e1c9b1))
  (via (at 135.75 95.6) (size 0.6) (drill 0.2) (layers "F.Cu" "B.Cu") (net 24) (tstamp 88006fd9-11fa-4e48-b880-641004fbd792))
  (segment (start 135.75 95.6) (end 136.4 95.6) (width 0.2) (layer "B.Cu") (net 24) (tstamp d7a40715-ccfe-4bdf-815a-c32a8f795ccd))
  (segment (start 135.1 94.3) (end 135.75 94.3) (width 0.2) (layer "F.Cu") (net 25) (tstamp 8a5df54d-b824-422f-9608-5124ac3fbe33))
  (via (at 135.75 94.3) (size 0.6) (drill 0.2) (layers "F.Cu" "B.Cu") (net 25) (tstamp 1643fd41-1d62-49b7-b3a1-3193f658891b))
  (segment (start 135.75 94.3) (end 136.4 94.3) (width 0.2) (layer "B.Cu") (net 25) (tstamp 65b0a735-2224-4fbc-9415-3f7bd5b19e1d))

)
